dataReplication
…
#Creating data for Females and Males
Females <- allMetrics |>
  filter(Sex == "F")
Males <- allMetrics |>
  filter(Sex == "M")

IndivDescrip <- allMetrics |>
  group_by(ID) |>
  summarize(In.Degree.Mean = mean(In.Degree), In.Degree.SD = sd(In.Degree), Out.Degree.Mean = mean(Out.Degree), Out.Degree.SD = sd(In.Degree), In.Strength.Mean = mean(In.Strength), In.Strength.SD = sd(In.Strength), Out.Degree.Mean = mean(Out.Degree), Out.Degree.SD = sd(Out.Degree), Eigenvector.Mean = mean(EC.vector), Eigenvector.SD = sd(EC.vector), Clustering.Coefficient.Mean = mean(CC), Custering.Coefficient.SD = sd(CC), Betweennss.Mean = mean(b), Betweenness.SD = sd(b))
IndivDescrip

# A tibble: 26 × 13
   ID    In.Degree.Mean In.Degree.SD Out.Degree.Mean Out.Degree.SD
   <chr>          <dbl>        <dbl>           <dbl>         <dbl>
 1 alb            17.7         0.577           19             2.65
 2 dan            18.3         2.31            15.7           2.08
 3 dop            13.7         3.79            18             5.29
 4 eri            11.7         2.52            14.7           1.15
 5 fra             6.33        2.08             6             2.65
 6 gem            11.3         5.13             9.33          4.93
 7 gre            14.3         5.03            15             5   
 8 har            16.3         2.52            18             4   
 9 isa            10           4               13.7           3.79
10 jan            12.7         3.79            12.3           2.31
# ℹ 16 more rows
# ℹ 8 more variables: In.Strength.Mean <dbl>, In.Strength.SD <dbl>,
#   Eigenvector.Mean <dbl>, Eigenvector.SD <dbl>,
#   Clustering.Coefficient.Mean <dbl>, Custering.Coefficient.SD <dbl>,
#   Betweennss.Mean <dbl>, Betweenness.SD <dbl>
…
